{
  "type": "service_account",
  "project_id": "rsc-stats-test",
  
  /*enter private key ID below*/
  "private_key_id": "private key id",

  /*enter private key below*/
  "private_key": "-----BEGIN PRIVATE KEY-----privatekey-----END PRIVATE KEY-----\n",

  /*enter client email*/
  "client_email": "client mail",

  /*enter client id below*/
  "client_id": "client id",
  "auth_uri": "https://accounts.google.com/o/oauth2/auth",
  "token_uri": "https://oauth2.googleapis.com/token",
  "auth_provider_x509_cert_url": "https://www.googleapis.com/oauth2/v1/certs",

  /*enter client certification url below*/
  "client_x509_cert_url": "cert url"
}
