{
	"Week": 4,
	"needWeekly": false,
	"Day": [{
		"Date": "Tues 19th October",
		"Verification": true,
		"Game1Blue": "Knull",
		"Game1Red":  "Warlocks",
		"Game2Blue": "Journeymen",
		"Game2Red":  "Toxin",
		"Game3Blue": "blank",
		"Game3Red":  "blank",
	},{
		"Date": "Thurs 30th September",
		"Verification": true,
		"Game1Blue": "Erina Tribe",
		"Game1Red":  "Safari",
		"Game2Blue": "Diamond Dust",
		"Game2Red":  "Hades",
		"Game3Blue": "Venom",
		"Game3Red":  "Venom",
	},{
		"Date": "Sat 2nd October",
		"Verification": true,
		"Game1Blue": "Toxin",
		"Game1Red":  "Yoruba",
		"Game2Blue": "Vibe Vibin",
		"Game2Red":  "Vulcan",
		"Game3Blue": "Fearless Kilo",
		"Game3Red":  "Party Rings",
	},{
		"Date": "Sun 3rd October",
		"Verification": true,
		"Game1Blue": "Flame",
		"Game1Red":  "Oreos",
		"Game2Blue": "Journeymen",
		"Game2Red":  "Fearless Echo",
		"Game3Blue": "Montbeliarde",
		"Game3Red":  "Vanguards",
	}],
}